Kinetics Overview
…
Heatmaps from model metrics

Statistical metrics data

Effects sizes and probabilities (F values and P values) were calculated using a multi-level mixed effects model approach as reported earlier ([DOI:(https://doi.org/10.1016/j.clnu.2018.09.029)]) Here we load the F- and P- values for the analytes discussed in the kinetics paper

F-values data

data("f_values_long_protocol", package = "kinetics")
f_values_long_protocol
#> # A tibble: 273 x 3
#>    analyte contrast value
#>    <fct>   <chr>    <dbl>
#>  1 ala     P1_P2    23.7 
#>  2 ala     P1_P3    23.9 
#>  3 ala     P1_P4     7.65
#>  4 ala     P1_P5    26.5 
#>  5 ala     P2_P3    16.3 
#>  6 ala     P2_P4    11.2 
#>  7 ala     P2_P5     4.83
#>  8 albu    P1_P2    13.8 
#>  9 albu    P1_P3    15.0 
#> 10 albu    P1_P4     9.39
#> # ... with 263 more rows

P-values data

data("p_values_long_protocol", package = "kinetics")
p_values_long_protocol
#> # A tibble: 357 x 4
#>    analyte contrast    value statistic
#>    <fct>   <chr>       <dbl> <chr>    
#>  1 ala     P1_P2    1.44e-24 p_value  
#>  2 ala     P1_P3    8.23e-25 p_value  
#>  3 ala     P1_P4    9.40e- 6 p_value  
#>  4 ala     P1_P5    1.45e-27 p_value  
#>  5 ala     P2_P3    3.08e-16 p_value  
#>  6 ala     P2_P4    3.61e-10 p_value  
#>  7 ala     P2_P5    2.83e- 2 p_value  
#>  8 alat    P1_P2    5.65e+ 2 p_value  
#>  9 alat    P1_P3    1.41e+ 2 p_value  
#> 10 alat    P1_P4    8.88e+ 2 p_value  
#> # ... with 347 more rows
…
f_values_long_protocol$contrast <- as_factor(f_values_long_protocol$contrast)

levels(f_values_long_protocol$contrast)
#> [1] "P1_P2" "P1_P3" "P1_P4" "P1_P5" "P2_P3" "P2_P4" "P2_P5"

f_values_final <- f_values_long_protocol %>%
  mutate(statistic = "f_value") %>%
  print()
#> # A tibble: 273 x 4
#>    analyte contrast value statistic
#>    <fct>   <fct>    <dbl> <chr>    
#>  1 ala     P1_P2    23.7  f_value  
#>  2 ala     P1_P3    23.9  f_value  
#>  3 ala     P1_P4     7.65 f_value  
#>  4 ala     P1_P5    26.5  f_value  
#>  5 ala     P2_P3    16.3  f_value  
#>  6 ala     P2_P4    11.2  f_value  
#>  7 ala     P2_P5     4.83 f_value  
#>  8 albu    P1_P2    13.8  f_value  
#>  9 albu    P1_P3    15.0  f_value  
#> 10 albu    P1_P4     9.39 f_value  
#> # ... with 263 more rows
…
p_values_final <- p_values_long_protocol

ind <- names(f_values_final) == names(p_values_final)
all <- all(ind)
if(all == "FALSE"){
  stop("ERROR, names of dataframes do not match, cannot bind rows - FIX before proceeding")
}

Combine F- and P-values

## bind rows
f_and_p <- dplyr::bind_rows(f_values_final,
                            p_values_final) %>%
  print()
#> # A tibble: 630 x 4
#>    analyte contrast value statistic
#>    <fct>   <fct>    <dbl> <chr>    
#>  1 ala     P1_P2    23.7  f_value  
#>  2 ala     P1_P3    23.9  f_value  
#>  3 ala     P1_P4     7.65 f_value  
#>  4 ala     P1_P5    26.5  f_value  
#>  5 ala     P2_P3    16.3  f_value  
#>  6 ala     P2_P4    11.2  f_value  
#>  7 ala     P2_P5     4.83 f_value  
#>  8 albu    P1_P2    13.8  f_value  
#>  9 albu    P1_P3    15.0  f_value  
#> 10 albu    P1_P4     9.39 f_value  
#> # ... with 620 more rows
…
Figure 2

This is the code for the heatmap in Figure 2 of the manuscript

invalid_params <- c("gfra", "ip10", "facd", "crph", "tnfa")

## F-values
heatmap_f_values <- both %>%
  dplyr::filter(statistic == "f_value") %>%
  dplyr::filter(!analyte %in% invalid_params) %>%
  arrange(desc(value))

heatmap_f_values
#> # A tibble: 238 x 4
#>    analyte contrast value statistic
#>    <fct>   <fct>    <dbl> <chr>    
#>  1 lymph   P1_P2     90.9 f_value  
#>  2 lymph   P1_P5     90.5 f_value  
#>  3 lymph   P1_P3     83.9 f_value  
#>  4 lymph   P2_P4     39.4 f_value  
#>  5 pota    P1_P2     33.3 f_value  
#>  6 bicar   P1_P5     31.7 f_value  
#>  7 tyr     P1_P5     30.7 f_value  
#>  8 tyr     P1_P2     28.8 f_value  
#>  9 bicar   P1_P3     28.4 f_value  
#> 10 cort    P2_P4     28.1 f_value  
#> # ... with 228 more rows
…
Prepare data for analyte kinetics graphs

Load data for analytes

library(kinetics)

data("analyte_data", package = "kinetics")

data_summary <- analyte_data %>%
  arrange(protocol, analyte)
data_summary
#> # A tibble: 460 x 6
#> # Groups:   protocol, time [40]
#>    protocol time  analyte mean_conc    sd n_obs
#>    <fct>    <fct> <fct>       <dbl> <dbl> <int>
#>  1 P1       0     ALB          44.4  1.96    15
#>  2 P1       0.5   ALB          44.5  2.50    15
#>  3 P1       1     ALB          44.5  3.14    15
#>  4 P1       1.5   ALB          45.1  2.90    14
#>  5 P1       2     ALB          45.3  2.74    15
#>  6 P1       3     ALB          44.7  2.86    15
#>  7 P1       6     ALB          45.2  2.83    15
#>  8 P1       24    ALB          44.7  2.19    15
#>  9 P1       0     BICARB       25.1  1.53    15
#> 10 P1       0.5   BICARB       27.1  2.72    15
#> # ... with 450 more rows
…
length(analytes_paper)
#> [1] 37
  
data_paper_summary <- data_summary %>%
  dplyr::filter(analyte %in% analytes_paper) %>%
  print()
#> # A tibble: 460 x 6
#> # Groups:   protocol, time [40]
#>    protocol time  analyte mean_conc    sd n_obs
#>    <fct>    <fct> <fct>       <dbl> <dbl> <int>
#>  1 P1       0     ALB          44.4  1.96    15
#>  2 P1       0.5   ALB          44.5  2.50    15
#>  3 P1       1     ALB          44.5  3.14    15
#>  4 P1       1.5   ALB          45.1  2.90    14
#>  5 P1       2     ALB          45.3  2.74    15
#>  6 P1       3     ALB          44.7  2.86    15
#>  7 P1       6     ALB          45.2  2.83    15
#>  8 P1       24    ALB          44.7  2.19    15
#>  9 P1       0     BICARB       25.1  1.53    15
#> 10 P1       0.5   BICARB       27.1  2.72    15
#> # ... with 450 more rows
…
## clean op for join
names(data_paper_summary_all)
#> [1] "protocol" "time"     "analyte"  "mean"     "sd"       "n_obs"

zonulin_clean <- zonulin %>%
  dplyr::mutate(time = as.character(time)) %>%
  dplyr::rename(analyte = analyse) %>%
  dplyr::select(subject,
         protocol,
         time,
         analyte,
         result)
zonulin_clean
#> # A tibble: 200 x 5
#>    subject protocol time  analyte result
#>      <dbl> <chr>    <chr> <chr>    <dbl>
#>  1       2 P1       0     Zonulin  28.8 
#>  2       2 P1       1     Zonulin  29.1 
#>  3       2 P1       1.5   Zonulin  30.3 
#>  4       2 P1       24    Zonulin  28.1 
#>  5       3 P1       0     Zonulin  28.6 
#>  6       3 P1       1     Zonulin  29.3 
#>  7       3 P1       2     Zonulin  32.4 
#>  8       3 P1       24    Zonulin  29.1 
#>  9       4 P1       0     Zonulin  27.9 
#> 10       4 P1       1     Zonulin   6.58
#> # ... with 190 more rows

zonulin_summary <- zonulin_clean %>%
  group_by(protocol, time, analyte) %>%
  summarise(mean = round(mean(result, na.rm = TRUE), digits = 3),
            sd = round(sd(result, na.rm = TRUE), digits = 2),
            n_obs = n())

zonulin_summary
#> # A tibble: 21 x 6
#> # Groups:   protocol, time [21]
#>    protocol time  analyte  mean    sd n_obs
#>    <chr>    <chr> <chr>   <dbl> <dbl> <int>
#>  1 P1       0     Zonulin  28.3  8.38    12
#>  2 P1       1     Zonulin  31.3  8.8     12
#>  3 P1       1.5   Zonulin  30.3 NA        1
#>  4 P1       2     Zonulin  31.5  4.87    11
#>  5 P1       24    Zonulin  31.8  6.25    12
#>  6 P2       0     Zonulin  30.6  7.57    13
#>  7 P2       1     Zonulin  34.7  4.82    13
#>  8 P2       2     Zonulin  31.8  3.12    13
#>  9 P2       24    Zonulin  33.8  4.44    13
#> 10 P3       0     Zonulin  36.7  6.6     12
#> # ... with 11 more rows

names(zonulin_summary) == names(data_paper_summary_all)
#> [1] TRUE TRUE TRUE TRUE TRUE TRUE

## row bind zonuline to summary data
data_paper_all_final <- dplyr::bind_rows(
  data_paper_summary_all,
  zonulin_summary
) %>%
arrange(analyte, protocol, time)  

data_paper_all_final
#> # A tibble: 497 x 6
#> # Groups:   protocol [5]
#>    protocol time  analyte  mean    sd n_obs
#>    <chr>    <chr> <chr>   <dbl> <dbl> <int>
#>  1 P1       0     ALB      44.4  1.96    15
#>  2 P1       0.5   ALB      44.5  2.50    15
#>  3 P1       1     ALB      44.5  3.14    15
#>  4 P1       1.5   ALB      45.1  2.90    14
#>  5 P1       2     ALB      45.3  2.74    15
#>  6 P1       24    ALB      44.7  2.19    15
#>  7 P1       3     ALB      44.7  2.86    15
#>  8 P1       6     ALB      45.2  2.83    15
#>  9 P2       0     ALB      43.9  1.85    15
#> 10 P2       0.5   ALB      48.5  2.33    13
#> # ... with 487 more rows
…
